{
  "project_info": {
    "project_number": "793989704737",
    "firebase_url": "https://disney-4e368.firebaseio.com",
    "project_id": "disney-4e368",
    "storage_bucket": "disney-4e368.appspot.com"
  },
  "client": [
    {
      "client_info": {
        "mobilesdk_app_id": "1:793989704737:android:97e8f73a5096c758",
        "android_client_info": {
          "package_name": "com.stackerine.baaap"
        }
      },
      "oauth_client": [
        {
          "client_id": "793989704737-v44nsfbn5apvhnqbqb17qbq9iho3d9gm.apps.googleusercontent.com",
          "client_type": 3
        }
      ],
      "api_key": [
        {
          "current_key": "AIzaSyBmf6zq9ibI6YzRHQtyMdHWHS5CeJd6RGI"
        }
      ],
      "services": {
        "appinvite_service": {
          "other_platform_oauth_client": [
            {
              "client_id": "793989704737-v44nsfbn5apvhnqbqb17qbq9iho3d9gm.apps.googleusercontent.com",
              "client_type": 3
            }
          ]
        }
      }
    }
  ],
  "configuration_version": "1"
}
